<?xml version="1.0" encoding="utf-8"?>
<!-- Generator: Adobe Illustrator 21.0.0, SVG Export Plug-In . SVG Version: 6.00 Build 0)  -->
<svg version="1.1" id="Layer_1" xmlns="http://www.w3.org/2000/svg" xmlns:xlink="http://www.w3.org/1999/xlink" x="0px" y="0px"
	 viewBox="0 0 41.2 48" style="enable-background:new 0 0 41.2 48;" xml:space="preserve">
<g>
	<g>
		<path d="M38.6,13.1c0-0.2-0.2-0.3-0.4-0.3h-6.8v-1.9c0-6-4.9-10.9-10.9-10.9S9.7,4.9,9.7,10.9v1.9H3c-0.2,0-0.4,0.2-0.4,0.3
			L0,47.6c0,0.1,0,0.2,0.1,0.3C0.2,48,0.3,48,0.4,48h40.5c0.1,0,0.2,0,0.3-0.1c0.1-0.1,0.1-0.2,0.1-0.3L38.6,13.1z M12.7,10.9
			c0-4.3,3.5-7.9,7.9-7.9s7.9,3.5,7.9,7.9v1.9H12.7V10.9z M11.2,23.3c-2.1,0-3.8-1.7-3.8-3.8c0-1.5,0.8-2.8,2.3-3.4v3.4
			c0,0.8,0.7,1.5,1.5,1.5s1.5-0.7,1.5-1.5v-3.4c1.5,0.6,2.3,2,2.3,3.4C15,21.6,13.3,23.3,11.2,23.3z M30,23.3
			c-2.1,0-3.8-1.7-3.8-3.8c0-1.5,0.8-2.8,2.3-3.4v3.4c0,0.8,0.7,1.5,1.5,1.5s1.5-0.7,1.5-1.5v-3.4c1.5,0.6,2.3,2,2.3,3.4
			C33.7,21.6,32.1,23.3,30,23.3z"/>
	</g>
</g>
</svg>
